Spark Command: /usr/lib/jvm/java-8-oracle/bin/java -cp /usr/local/spark/conf/:/usr/local/spark/jars/* -Xmx1g org.apache.spark.deploy.master.Master --host Master --port 7077 --webui-port 8080
========================================
Using Spark's default log4j profile: org/apache/spark/log4j-defaults.properties
18/01/19 09:52:31 INFO Master: Started daemon with process name: 2804@Master
18/01/19 09:52:31 INFO SignalUtils: Registered signal handler for TERM
18/01/19 09:52:31 INFO SignalUtils: Registered signal handler for HUP
18/01/19 09:52:31 INFO SignalUtils: Registered signal handler for INT
18/01/19 09:52:31 WARN NativeCodeLoader: Unable to load native-hadoop library for your platform... using builtin-java classes where applicable
18/01/19 09:52:32 INFO SecurityManager: Changing view acls to: hduser
18/01/19 09:52:32 INFO SecurityManager: Changing modify acls to: hduser
18/01/19 09:52:32 INFO SecurityManager: Changing view acls groups to: 
18/01/19 09:52:32 INFO SecurityManager: Changing modify acls groups to: 
18/01/19 09:52:32 INFO SecurityManager: SecurityManager: authentication disabled; ui acls disabled; users  with view permissions: Set(hduser); groups with view permissions: Set(); users  with modify permissions: Set(hduser); groups with modify permissions: Set()
18/01/19 09:52:33 INFO Utils: Successfully started service 'sparkMaster' on port 7077.
18/01/19 09:52:33 INFO Master: Starting Spark master at spark://Master:7077
18/01/19 09:52:33 INFO Master: Running Spark version 2.1.1
18/01/19 09:52:34 INFO Utils: Successfully started service 'MasterUI' on port 8080.
18/01/19 09:52:34 INFO MasterWebUI: Bound MasterWebUI to 0.0.0.0, and started at http://192.168.1.2:8080
18/01/19 09:52:34 INFO Utils: Successfully started service on port 6066.
18/01/19 09:52:34 INFO StandaloneRestServer: Started REST server for submitting applications on port 6066
18/01/19 09:52:35 INFO Master: I have been elected leader! New state: ALIVE
18/01/19 09:52:38 INFO Master: Registering worker 192.168.1.4:39208 with 2 cores, 4.0 GB RAM
18/01/19 10:19:07 INFO Master: Registering app Creating TF_IDF Matrix (Termino/Documento)
18/01/19 10:19:07 INFO Master: Registered app Creating TF_IDF Matrix (Termino/Documento) with ID app-20180119101907-0000
18/01/19 10:19:07 INFO Master: Launching executor app-20180119101907-0000/0 on worker worker-20180119095237-192.168.1.4-39208
18/01/19 15:20:08 INFO Master: Received unregister request from application app-20180119101907-0000
18/01/19 15:20:08 INFO Master: Removing app app-20180119101907-0000
18/01/19 15:20:08 INFO Master: 192.168.1.2:34336 got disassociated, removing it.
18/01/19 15:20:08 INFO Master: 192.168.1.2:38911 got disassociated, removing it.
18/01/19 15:20:09 WARN Master: Got status update for unknown executor app-20180119101907-0000/0
