Spark Command: /usr/lib/jvm/java-8-oracle/bin/java -cp /usr/local/spark/conf/:/usr/local/spark/jars/* -Xmx1g org.apache.spark.deploy.master.Master --host Master --port 7077 --webui-port 8080
========================================
Using Spark's default log4j profile: org/apache/spark/log4j-defaults.properties
18/01/11 13:31:27 INFO Master: Started daemon with process name: 4542@Master
18/01/11 13:31:27 INFO SignalUtils: Registered signal handler for TERM
18/01/11 13:31:27 INFO SignalUtils: Registered signal handler for HUP
18/01/11 13:31:27 INFO SignalUtils: Registered signal handler for INT
18/01/11 13:31:27 WARN NativeCodeLoader: Unable to load native-hadoop library for your platform... using builtin-java classes where applicable
18/01/11 13:31:27 INFO SecurityManager: Changing view acls to: hduser
18/01/11 13:31:27 INFO SecurityManager: Changing modify acls to: hduser
18/01/11 13:31:27 INFO SecurityManager: Changing view acls groups to: 
18/01/11 13:31:27 INFO SecurityManager: Changing modify acls groups to: 
18/01/11 13:31:27 INFO SecurityManager: SecurityManager: authentication disabled; ui acls disabled; users  with view permissions: Set(hduser); groups with view permissions: Set(); users  with modify permissions: Set(hduser); groups with modify permissions: Set()
18/01/11 13:31:28 INFO Utils: Successfully started service 'sparkMaster' on port 7077.
18/01/11 13:31:28 INFO Master: Starting Spark master at spark://Master:7077
18/01/11 13:31:28 INFO Master: Running Spark version 2.1.1
18/01/11 13:31:28 INFO Utils: Successfully started service 'MasterUI' on port 8080.
18/01/11 13:31:28 INFO MasterWebUI: Bound MasterWebUI to 0.0.0.0, and started at http://192.168.1.2:8080
18/01/11 13:31:28 INFO Utils: Successfully started service on port 6066.
18/01/11 13:31:28 INFO StandaloneRestServer: Started REST server for submitting applications on port 6066
18/01/11 13:31:28 INFO Master: I have been elected leader! New state: ALIVE
18/01/11 13:31:35 INFO Master: Registering worker 192.168.1.4:37365 with 2 cores, 4.0 GB RAM
18/01/11 13:36:28 INFO Master: Registering app Creating TF_IDF Matrix (Termino/Documento)
18/01/11 13:36:28 INFO Master: Registered app Creating TF_IDF Matrix (Termino/Documento) with ID app-20180111133628-0000
18/01/11 13:36:28 INFO Master: Launching executor app-20180111133628-0000/0 on worker worker-20180111133134-192.168.1.4-37365
