Spark Command: /usr/lib/jvm/java-8-oracle/bin/java -cp /usr/local/spark/conf/:/usr/local/spark/jars/* -Xmx1g org.apache.spark.deploy.master.Master --host Master --port 7077 --webui-port 8080
========================================
Using Spark's default log4j profile: org/apache/spark/log4j-defaults.properties
18/01/10 13:09:46 INFO Master: Started daemon with process name: 3152@Master
18/01/10 13:09:46 INFO SignalUtils: Registered signal handler for TERM
18/01/10 13:09:46 INFO SignalUtils: Registered signal handler for HUP
18/01/10 13:09:46 INFO SignalUtils: Registered signal handler for INT
18/01/10 13:09:46 WARN NativeCodeLoader: Unable to load native-hadoop library for your platform... using builtin-java classes where applicable
18/01/10 13:09:47 INFO SecurityManager: Changing view acls to: hduser
18/01/10 13:09:47 INFO SecurityManager: Changing modify acls to: hduser
18/01/10 13:09:47 INFO SecurityManager: Changing view acls groups to: 
18/01/10 13:09:47 INFO SecurityManager: Changing modify acls groups to: 
18/01/10 13:09:47 INFO SecurityManager: SecurityManager: authentication disabled; ui acls disabled; users  with view permissions: Set(hduser); groups with view permissions: Set(); users  with modify permissions: Set(hduser); groups with modify permissions: Set()
18/01/10 13:09:48 INFO Utils: Successfully started service 'sparkMaster' on port 7077.
18/01/10 13:09:48 INFO Master: Starting Spark master at spark://Master:7077
18/01/10 13:09:48 INFO Master: Running Spark version 2.1.1
18/01/10 13:09:48 INFO Utils: Successfully started service 'MasterUI' on port 8080.
18/01/10 13:09:48 INFO MasterWebUI: Bound MasterWebUI to 0.0.0.0, and started at http://192.168.1.2:8080
18/01/10 13:09:48 INFO Utils: Successfully started service on port 6066.
18/01/10 13:09:48 INFO StandaloneRestServer: Started REST server for submitting applications on port 6066
18/01/10 13:09:49 INFO Master: Registering worker 192.168.1.4:44462 with 2 cores, 4.0 GB RAM
18/01/10 13:09:49 INFO Master: I have been elected leader! New state: ALIVE
18/01/10 13:09:56 INFO Master: Registering worker 192.168.1.4:44462 with 2 cores, 4.0 GB RAM
18/01/10 13:12:31 INFO Master: Registering app Creating histograms
18/01/10 13:12:31 INFO Master: Registered app Creating histograms with ID app-20180110131231-0000
18/01/10 13:12:31 INFO Master: Launching executor app-20180110131231-0000/0 on worker worker-20180110130948-192.168.1.4-44462
18/01/10 13:25:21 INFO Master: Received unregister request from application app-20180110131231-0000
18/01/10 13:25:21 INFO Master: Removing app app-20180110131231-0000
18/01/10 13:25:21 INFO Master: 192.168.1.2:50262 got disassociated, removing it.
18/01/10 13:25:21 INFO Master: 192.168.1.2:42322 got disassociated, removing it.
18/01/10 13:25:21 WARN Master: Got status update for unknown executor app-20180110131231-0000/0
18/01/10 13:27:37 INFO Master: Registering app Creating histograms
18/01/10 13:27:37 INFO Master: Registered app Creating histograms with ID app-20180110132737-0001
18/01/10 13:27:37 INFO Master: Launching executor app-20180110132737-0001/0 on worker worker-20180110130948-192.168.1.4-44462
18/01/10 13:39:17 INFO Master: Received unregister request from application app-20180110132737-0001
18/01/10 13:39:17 INFO Master: Removing app app-20180110132737-0001
18/01/10 13:39:17 INFO Master: 192.168.1.2:52352 got disassociated, removing it.
18/01/10 13:39:17 INFO Master: 192.168.1.2:38359 got disassociated, removing it.
18/01/10 13:39:18 WARN Master: Got status update for unknown executor app-20180110132737-0001/0
18/01/10 14:01:15 INFO Master: Registering app Creating histograms
18/01/10 14:01:15 INFO Master: Registered app Creating histograms with ID app-20180110140115-0002
18/01/10 14:01:15 INFO Master: Launching executor app-20180110140115-0002/0 on worker worker-20180110130948-192.168.1.4-44462
18/01/10 14:12:58 INFO Master: Received unregister request from application app-20180110140115-0002
18/01/10 14:12:58 INFO Master: Removing app app-20180110140115-0002
18/01/10 14:12:58 INFO Master: 192.168.1.2:54448 got disassociated, removing it.
18/01/10 14:12:58 INFO Master: 192.168.1.2:36879 got disassociated, removing it.
18/01/10 14:12:59 WARN Master: Got status update for unknown executor app-20180110140115-0002/0
18/01/10 14:20:09 INFO Master: Registering app Creating histograms
18/01/10 14:20:09 INFO Master: Registered app Creating histograms with ID app-20180110142009-0003
18/01/10 14:20:09 INFO Master: Launching executor app-20180110142009-0003/0 on worker worker-20180110130948-192.168.1.4-44462
18/01/10 14:32:46 INFO Master: Received unregister request from application app-20180110142009-0003
18/01/10 14:32:46 INFO Master: Removing app app-20180110142009-0003
18/01/10 14:32:46 INFO Master: 192.168.1.2:56532 got disassociated, removing it.
18/01/10 14:32:46 INFO Master: 192.168.1.2:45607 got disassociated, removing it.
18/01/10 14:32:46 WARN Master: Got status update for unknown executor app-20180110142009-0003/0
18/01/10 14:36:19 INFO Master: Registering app Creating Key-Value (Id-Doc)
18/01/10 14:36:19 INFO Master: Registered app Creating Key-Value (Id-Doc) with ID app-20180110143619-0004
18/01/10 14:36:19 INFO Master: Launching executor app-20180110143619-0004/0 on worker worker-20180110130948-192.168.1.4-44462
18/01/10 14:36:24 INFO Master: Received unregister request from application app-20180110143619-0004
18/01/10 14:36:24 INFO Master: Removing app app-20180110143619-0004
18/01/10 14:36:24 INFO Master: 192.168.1.2:58616 got disassociated, removing it.
18/01/10 14:36:24 INFO Master: 192.168.1.2:35568 got disassociated, removing it.
18/01/10 14:36:25 WARN Master: Got status update for unknown executor app-20180110143619-0004/0
18/01/10 14:37:27 INFO Master: Registering app Creating Key-Value (Id-Doc)
18/01/10 14:37:27 INFO Master: Registered app Creating Key-Value (Id-Doc) with ID app-20180110143727-0005
18/01/10 14:37:27 INFO Master: Launching executor app-20180110143727-0005/0 on worker worker-20180110130948-192.168.1.4-44462
18/01/10 14:37:32 INFO Master: Received unregister request from application app-20180110143727-0005
18/01/10 14:37:32 INFO Master: Removing app app-20180110143727-0005
18/01/10 14:37:32 INFO Master: 192.168.1.2:58634 got disassociated, removing it.
18/01/10 14:37:32 INFO Master: 192.168.1.2:41618 got disassociated, removing it.
18/01/10 14:37:32 WARN Master: Got status update for unknown executor app-20180110143727-0005/0
18/01/10 14:38:44 INFO Master: Registering app Creating Key-Value (Id-Doc)
18/01/10 14:38:44 INFO Master: Registered app Creating Key-Value (Id-Doc) with ID app-20180110143844-0006
18/01/10 14:38:44 INFO Master: Launching executor app-20180110143844-0006/0 on worker worker-20180110130948-192.168.1.4-44462
18/01/10 14:38:50 INFO Master: Received unregister request from application app-20180110143844-0006
18/01/10 14:38:50 INFO Master: Removing app app-20180110143844-0006
18/01/10 14:38:50 INFO Master: 192.168.1.2:58674 got disassociated, removing it.
18/01/10 14:38:50 INFO Master: 192.168.1.2:33987 got disassociated, removing it.
18/01/10 14:38:50 WARN Master: Got status update for unknown executor app-20180110143844-0006/0
18/01/10 14:39:44 INFO Master: Registering app Creating Key-Value (Id-Word)
18/01/10 14:39:44 INFO Master: Registered app Creating Key-Value (Id-Word) with ID app-20180110143944-0007
18/01/10 14:39:44 INFO Master: Launching executor app-20180110143944-0007/0 on worker worker-20180110130948-192.168.1.4-44462
18/01/10 14:39:49 INFO Master: Received unregister request from application app-20180110143944-0007
18/01/10 14:39:49 INFO Master: Removing app app-20180110143944-0007
18/01/10 14:39:49 INFO Master: 192.168.1.2:58704 got disassociated, removing it.
18/01/10 14:39:49 INFO Master: 192.168.1.2:41120 got disassociated, removing it.
18/01/10 14:39:49 WARN Master: Got status update for unknown executor app-20180110143944-0007/0
18/01/10 14:40:12 INFO Master: Registering app Creating Key-Value (Id-Word)
18/01/10 14:40:12 INFO Master: Registered app Creating Key-Value (Id-Word) with ID app-20180110144012-0008
18/01/10 14:40:12 INFO Master: Launching executor app-20180110144012-0008/0 on worker worker-20180110130948-192.168.1.4-44462
18/01/10 14:40:18 INFO Master: Received unregister request from application app-20180110144012-0008
18/01/10 14:40:18 INFO Master: Removing app app-20180110144012-0008
18/01/10 14:40:18 INFO Master: 192.168.1.2:58714 got disassociated, removing it.
18/01/10 14:40:18 INFO Master: 192.168.1.2:38123 got disassociated, removing it.
18/01/10 14:40:19 WARN Master: Got status update for unknown executor app-20180110144012-0008/0
18/01/10 14:40:38 INFO Master: Registering app Creating Key-Value (Id-Word)
18/01/10 14:40:38 INFO Master: Registered app Creating Key-Value (Id-Word) with ID app-20180110144038-0009
18/01/10 14:40:38 INFO Master: Launching executor app-20180110144038-0009/0 on worker worker-20180110130948-192.168.1.4-44462
18/01/10 14:40:43 INFO Master: Received unregister request from application app-20180110144038-0009
18/01/10 14:40:43 INFO Master: Removing app app-20180110144038-0009
18/01/10 14:40:43 INFO Master: 192.168.1.2:58726 got disassociated, removing it.
18/01/10 14:40:43 INFO Master: 192.168.1.2:41892 got disassociated, removing it.
18/01/10 14:40:43 WARN Master: Got status update for unknown executor app-20180110144038-0009/0
18/01/10 14:43:01 INFO Master: Registering app Creating Sparse Matrix (Termino/Documento)
18/01/10 14:43:01 INFO Master: Registered app Creating Sparse Matrix (Termino/Documento) with ID app-20180110144301-0010
18/01/10 14:43:01 INFO Master: Launching executor app-20180110144301-0010/0 on worker worker-20180110130948-192.168.1.4-44462
18/01/10 15:16:36 INFO Master: Received unregister request from application app-20180110144301-0010
18/01/10 15:16:36 INFO Master: Removing app app-20180110144301-0010
18/01/10 15:16:36 INFO Master: 192.168.1.2:58756 got disassociated, removing it.
18/01/10 15:16:36 INFO Master: 192.168.1.2:40344 got disassociated, removing it.
18/01/10 15:16:36 WARN Master: Got status update for unknown executor app-20180110144301-0010/0
18/01/10 15:17:11 INFO Master: Registering app Creating Sparse Matrix (Termino/Documento)
18/01/10 15:17:11 INFO Master: Registered app Creating Sparse Matrix (Termino/Documento) with ID app-20180110151711-0011
18/01/10 15:17:11 INFO Master: Launching executor app-20180110151711-0011/0 on worker worker-20180110130948-192.168.1.4-44462
18/01/10 15:28:19 INFO Master: Received unregister request from application app-20180110151711-0011
18/01/10 15:28:19 INFO Master: Removing app app-20180110151711-0011
18/01/10 15:28:19 INFO Master: 192.168.1.2:32786 got disassociated, removing it.
18/01/10 15:28:19 INFO Master: 192.168.1.2:35726 got disassociated, removing it.
18/01/10 15:28:19 WARN Master: Got status update for unknown executor app-20180110151711-0011/0
18/01/10 15:48:26 INFO Master: Registering app Creating Sparse Matrix (Termino/Documento)
18/01/10 15:48:26 INFO Master: Registered app Creating Sparse Matrix (Termino/Documento) with ID app-20180110154826-0012
18/01/10 15:48:26 INFO Master: Launching executor app-20180110154826-0012/0 on worker worker-20180110130948-192.168.1.4-44462
18/01/10 16:00:37 INFO Master: Removing executor app-20180110154826-0012/0 because it is EXITED
18/01/10 16:00:37 INFO Master: Launching executor app-20180110154826-0012/1 on worker worker-20180110130948-192.168.1.4-44462
18/01/10 16:00:43 INFO Master: Removing executor app-20180110154826-0012/1 because it is EXITED
18/01/10 16:00:43 INFO Master: Launching executor app-20180110154826-0012/2 on worker worker-20180110130948-192.168.1.4-44462
18/01/10 16:07:10 INFO Master: Received unregister request from application app-20180110154826-0012
18/01/10 16:07:10 INFO Master: Removing app app-20180110154826-0012
18/01/10 16:07:10 INFO Master: 192.168.1.2:34888 got disassociated, removing it.
18/01/10 16:07:10 INFO Master: 192.168.1.2:43411 got disassociated, removing it.
18/01/10 16:07:10 WARN Master: Got status update for unknown executor app-20180110154826-0012/2
18/01/10 16:07:24 INFO Master: Registering app Creating Sparse Matrix (Termino/Documento)
18/01/10 16:07:24 INFO Master: Registered app Creating Sparse Matrix (Termino/Documento) with ID app-20180110160724-0013
18/01/10 16:07:24 INFO Master: Launching executor app-20180110160724-0013/0 on worker worker-20180110130948-192.168.1.4-44462
18/01/10 16:19:22 INFO Master: Removing executor app-20180110160724-0013/0 because it is EXITED
18/01/10 16:19:22 INFO Master: Launching executor app-20180110160724-0013/1 on worker worker-20180110130948-192.168.1.4-44462
18/01/10 16:19:27 INFO Master: Removing executor app-20180110160724-0013/1 because it is EXITED
18/01/10 16:19:27 INFO Master: Launching executor app-20180110160724-0013/2 on worker worker-20180110130948-192.168.1.4-44462
18/01/10 16:22:35 INFO Master: Received unregister request from application app-20180110160724-0013
18/01/10 16:22:35 INFO Master: Removing app app-20180110160724-0013
18/01/10 16:22:35 INFO Master: 192.168.1.2:36994 got disassociated, removing it.
18/01/10 16:22:35 INFO Master: 192.168.1.2:39370 got disassociated, removing it.
18/01/10 16:22:35 WARN Master: Got status update for unknown executor app-20180110160724-0013/2
18/01/10 16:23:45 INFO Master: Registering app Creating Sparse Matrix (Termino/Documento)
18/01/10 16:23:45 INFO Master: Registered app Creating Sparse Matrix (Termino/Documento) with ID app-20180110162345-0014
18/01/10 16:23:45 INFO Master: Launching executor app-20180110162345-0014/0 on worker worker-20180110130948-192.168.1.4-44462
18/01/10 16:36:04 INFO Master: Received unregister request from application app-20180110162345-0014
18/01/10 16:36:04 INFO Master: Removing app app-20180110162345-0014
18/01/10 16:36:05 INFO Master: 192.168.1.2:39142 got disassociated, removing it.
18/01/10 16:36:05 INFO Master: 192.168.1.2:34234 got disassociated, removing it.
18/01/10 16:36:05 WARN Master: Got status update for unknown executor app-20180110162345-0014/0
18/01/10 16:47:23 INFO Master: Registering app Creating Sparse Matrix (Termino/Documento)
18/01/10 16:47:23 INFO Master: Registered app Creating Sparse Matrix (Termino/Documento) with ID app-20180110164723-0015
18/01/10 16:47:23 INFO Master: Launching executor app-20180110164723-0015/0 on worker worker-20180110130948-192.168.1.4-44462
18/01/10 17:00:04 INFO Master: Received unregister request from application app-20180110164723-0015
18/01/10 17:00:04 INFO Master: Removing app app-20180110164723-0015
18/01/10 17:00:04 INFO Master: 192.168.1.2:41230 got disassociated, removing it.
18/01/10 17:00:04 INFO Master: 192.168.1.2:34851 got disassociated, removing it.
18/01/10 17:00:04 WARN Master: Got status update for unknown executor app-20180110164723-0015/0
18/01/10 17:30:54 INFO Master: Registering app Creating TF_IDF Matrix (Termino/Documento)
18/01/10 17:30:54 INFO Master: Registered app Creating TF_IDF Matrix (Termino/Documento) with ID app-20180110173054-0016
18/01/10 17:30:54 INFO Master: Launching executor app-20180110173054-0016/0 on worker worker-20180110130948-192.168.1.4-44462
18/01/10 23:01:48 INFO Master: Removing executor app-20180110173054-0016/0 because it is EXITED
18/01/10 23:01:48 INFO Master: Launching executor app-20180110173054-0016/1 on worker worker-20180110130948-192.168.1.4-44462
18/01/10 23:01:58 INFO Master: 192.168.1.2:43368 got disassociated, removing it.
18/01/10 23:01:58 INFO Master: 192.168.1.2:33286 got disassociated, removing it.
18/01/10 23:01:58 INFO Master: Removing app app-20180110173054-0016
18/01/10 23:01:59 WARN Master: Got status update for unknown executor app-20180110173054-0016/1
