Spark Command: /usr/lib/jvm/java-8-oracle/bin/java -cp /usr/local/spark/conf/:/usr/local/spark/jars/* -Xmx1g org.apache.spark.deploy.master.Master --host Master --port 7077 --webui-port 8080
========================================
Using Spark's default log4j profile: org/apache/spark/log4j-defaults.properties
17/12/22 15:50:11 INFO Master: Started daemon with process name: 28970@Master
17/12/22 15:50:11 INFO SignalUtils: Registered signal handler for TERM
17/12/22 15:50:11 INFO SignalUtils: Registered signal handler for HUP
17/12/22 15:50:11 INFO SignalUtils: Registered signal handler for INT
17/12/22 15:50:11 WARN NativeCodeLoader: Unable to load native-hadoop library for your platform... using builtin-java classes where applicable
17/12/22 15:50:11 INFO SecurityManager: Changing view acls to: hduser
17/12/22 15:50:11 INFO SecurityManager: Changing modify acls to: hduser
17/12/22 15:50:11 INFO SecurityManager: Changing view acls groups to: 
17/12/22 15:50:11 INFO SecurityManager: Changing modify acls groups to: 
17/12/22 15:50:11 INFO SecurityManager: SecurityManager: authentication disabled; ui acls disabled; users  with view permissions: Set(hduser); groups with view permissions: Set(); users  with modify permissions: Set(hduser); groups with modify permissions: Set()
17/12/22 15:50:12 INFO Utils: Successfully started service 'sparkMaster' on port 7077.
17/12/22 15:50:12 INFO Master: Starting Spark master at spark://Master:7077
17/12/22 15:50:12 INFO Master: Running Spark version 2.1.1
17/12/22 15:50:12 INFO Utils: Successfully started service 'MasterUI' on port 8080.
17/12/22 15:50:12 INFO MasterWebUI: Bound MasterWebUI to 0.0.0.0, and started at http://192.168.1.2:8080
17/12/22 15:50:12 INFO Utils: Successfully started service on port 6066.
17/12/22 15:50:12 INFO StandaloneRestServer: Started REST server for submitting applications on port 6066
17/12/22 15:50:12 INFO Master: I have been elected leader! New state: ALIVE
17/12/22 15:50:15 INFO Master: Registering worker 192.168.1.4:43896 with 2 cores, 4.0 GB RAM
17/12/22 15:52:52 INFO Master: Registering app Creating KeysDocs
17/12/22 15:52:52 INFO Master: Registered app Creating KeysDocs with ID app-20171222155252-0000
17/12/22 15:52:52 INFO Master: Launching executor app-20171222155252-0000/0 on worker worker-20171222155014-192.168.1.4-43896
17/12/22 15:53:05 INFO Master: Received unregister request from application app-20171222155252-0000
17/12/22 15:53:05 INFO Master: Removing app app-20171222155252-0000
17/12/22 15:53:05 INFO Master: 192.168.1.2:36730 got disassociated, removing it.
17/12/22 15:53:05 INFO Master: 192.168.1.2:42944 got disassociated, removing it.
17/12/22 15:53:05 WARN Master: Got status update for unknown executor app-20171222155252-0000/0
17/12/22 15:58:12 INFO Master: Registering app Creating_Verifying OldKeysDocs
17/12/22 15:58:12 INFO Master: Registered app Creating_Verifying OldKeysDocs with ID app-20171222155812-0001
17/12/22 15:58:12 INFO Master: Launching executor app-20171222155812-0001/0 on worker worker-20171222155014-192.168.1.4-43896
17/12/22 15:58:17 INFO Master: Received unregister request from application app-20171222155812-0001
17/12/22 15:58:17 INFO Master: Removing app app-20171222155812-0001
17/12/22 15:58:17 INFO Master: 192.168.1.2:36760 got disassociated, removing it.
17/12/22 15:58:17 INFO Master: 192.168.1.2:32855 got disassociated, removing it.
17/12/22 15:58:17 WARN Master: Got status update for unknown executor app-20171222155812-0001/0
17/12/22 15:58:26 INFO Master: Registering app Creating Clean Core
17/12/22 15:58:26 INFO Master: Registered app Creating Clean Core with ID app-20171222155826-0002
17/12/22 15:58:26 INFO Master: Launching executor app-20171222155826-0002/0 on worker worker-20171222155014-192.168.1.4-43896
17/12/22 16:18:14 INFO Master: Received unregister request from application app-20171222155826-0002
17/12/22 16:18:14 INFO Master: Removing app app-20171222155826-0002
17/12/22 16:18:14 INFO Master: 192.168.1.2:36768 got disassociated, removing it.
17/12/22 16:18:14 INFO Master: 192.168.1.2:42479 got disassociated, removing it.
17/12/22 16:18:15 WARN Master: Got status update for unknown executor app-20171222155826-0002/0
17/12/22 16:18:15 INFO Master: Registering app Creating KeysDocs
17/12/22 16:18:15 INFO Master: Registered app Creating KeysDocs with ID app-20171222161815-0003
17/12/22 16:18:15 INFO Master: Launching executor app-20171222161815-0003/0 on worker worker-20171222155014-192.168.1.4-43896
17/12/22 16:18:28 INFO Master: Received unregister request from application app-20171222161815-0003
17/12/22 16:18:28 INFO Master: Removing app app-20171222161815-0003
17/12/22 16:18:28 INFO Master: 192.168.1.2:38882 got disassociated, removing it.
17/12/22 16:18:28 INFO Master: 192.168.1.2:33433 got disassociated, removing it.
17/12/22 16:18:29 WARN Master: Got status update for unknown executor app-20171222161815-0003/0
17/12/22 16:19:21 INFO Master: Registering app Creating Clean Core
17/12/22 16:19:21 INFO Master: Registered app Creating Clean Core with ID app-20171222161921-0004
17/12/22 16:19:21 INFO Master: Launching executor app-20171222161921-0004/0 on worker worker-20171222155014-192.168.1.4-43896
17/12/22 16:40:07 INFO Master: Received unregister request from application app-20171222161921-0004
17/12/22 16:40:07 INFO Master: Removing app app-20171222161921-0004
17/12/22 16:40:07 INFO Master: 192.168.1.2:38906 got disassociated, removing it.
17/12/22 16:40:07 INFO Master: 192.168.1.2:42080 got disassociated, removing it.
17/12/22 16:40:08 WARN Master: Got status update for unknown executor app-20171222161921-0004/0
17/12/22 16:40:08 INFO Master: Registering app Creating KeysDocs
17/12/22 16:40:08 INFO Master: Registered app Creating KeysDocs with ID app-20171222164008-0005
17/12/22 16:40:08 INFO Master: Launching executor app-20171222164008-0005/0 on worker worker-20171222155014-192.168.1.4-43896
17/12/22 16:40:21 INFO Master: Received unregister request from application app-20171222164008-0005
17/12/22 16:40:21 INFO Master: Removing app app-20171222164008-0005
17/12/22 16:40:21 INFO Master: 192.168.1.2:40970 got disassociated, removing it.
17/12/22 16:40:21 INFO Master: 192.168.1.2:34100 got disassociated, removing it.
17/12/22 16:40:21 WARN Master: Got status update for unknown executor app-20171222164008-0005/0
17/12/22 16:42:45 INFO Master: Registering app Creating Clean Core
17/12/22 16:42:45 INFO Master: Registered app Creating Clean Core with ID app-20171222164245-0006
17/12/22 16:42:45 INFO Master: Launching executor app-20171222164245-0006/0 on worker worker-20171222155014-192.168.1.4-43896
17/12/22 17:03:28 INFO Master: Received unregister request from application app-20171222164245-0006
17/12/22 17:03:28 INFO Master: Removing app app-20171222164245-0006
17/12/22 17:03:28 INFO Master: 192.168.1.2:41000 got disassociated, removing it.
17/12/22 17:03:28 INFO Master: 192.168.1.2:37657 got disassociated, removing it.
17/12/22 17:03:29 WARN Master: Got status update for unknown executor app-20171222164245-0006/0
17/12/22 17:03:29 INFO Master: Registering app Creating KeysDocs
17/12/22 17:03:29 INFO Master: Registered app Creating KeysDocs with ID app-20171222170329-0007
17/12/22 17:03:29 INFO Master: Launching executor app-20171222170329-0007/0 on worker worker-20171222155014-192.168.1.4-43896
17/12/22 17:03:42 INFO Master: Received unregister request from application app-20171222170329-0007
17/12/22 17:03:42 INFO Master: Removing app app-20171222170329-0007
17/12/22 17:03:42 INFO Master: 192.168.1.2:43076 got disassociated, removing it.
17/12/22 17:03:42 INFO Master: 192.168.1.2:46413 got disassociated, removing it.
17/12/22 17:03:42 WARN Master: Got status update for unknown executor app-20171222170329-0007/0
17/12/22 17:16:25 INFO Master: Registering app Creating Corpus
17/12/22 17:16:25 INFO Master: Registered app Creating Corpus with ID app-20171222171625-0008
17/12/22 17:16:25 INFO Master: Launching executor app-20171222171625-0008/0 on worker worker-20171222155014-192.168.1.4-43896
17/12/22 17:19:24 INFO Master: Received unregister request from application app-20171222171625-0008
17/12/22 17:19:24 INFO Master: Removing app app-20171222171625-0008
17/12/22 17:19:24 INFO Master: 192.168.1.2:43134 got disassociated, removing it.
17/12/22 17:19:24 INFO Master: 192.168.1.2:34315 got disassociated, removing it.
17/12/22 17:19:24 WARN Master: Got status update for unknown executor app-20171222171625-0008/0
17/12/22 17:19:52 INFO Master: Registering app Creating Corpus
17/12/22 17:19:52 INFO Master: Registered app Creating Corpus with ID app-20171222171952-0009
17/12/22 17:19:52 INFO Master: Launching executor app-20171222171952-0009/0 on worker worker-20171222155014-192.168.1.4-43896
17/12/22 17:22:50 INFO Master: Received unregister request from application app-20171222171952-0009
17/12/22 17:22:50 INFO Master: Removing app app-20171222171952-0009
17/12/22 17:22:50 INFO Master: 192.168.1.2:43176 got disassociated, removing it.
17/12/22 17:22:50 INFO Master: 192.168.1.2:39773 got disassociated, removing it.
17/12/22 17:22:50 WARN Master: Got status update for unknown executor app-20171222171952-0009/0
17/12/22 17:23:03 INFO Master: Registering app Creating Corpus
17/12/22 17:23:03 INFO Master: Registered app Creating Corpus with ID app-20171222172303-0010
17/12/22 17:23:03 INFO Master: Launching executor app-20171222172303-0010/0 on worker worker-20171222155014-192.168.1.4-43896
17/12/22 17:25:59 INFO Master: Received unregister request from application app-20171222172303-0010
17/12/22 17:25:59 INFO Master: Removing app app-20171222172303-0010
17/12/22 17:25:59 INFO Master: 192.168.1.2:43204 got disassociated, removing it.
17/12/22 17:25:59 INFO Master: 192.168.1.2:45487 got disassociated, removing it.
17/12/22 17:25:59 WARN Master: Got status update for unknown executor app-20171222172303-0010/0
17/12/22 17:26:41 INFO Master: Registering app Creating BoWGral...
17/12/22 17:26:41 INFO Master: Registered app Creating BoWGral... with ID app-20171222172641-0011
17/12/22 17:26:41 INFO Master: Launching executor app-20171222172641-0011/0 on worker worker-20171222155014-192.168.1.4-43896
17/12/22 17:29:46 INFO Master: Received unregister request from application app-20171222172641-0011
17/12/22 17:29:46 INFO Master: Removing app app-20171222172641-0011
17/12/22 17:29:46 INFO Master: 192.168.1.2:43256 got disassociated, removing it.
17/12/22 17:29:46 INFO Master: 192.168.1.2:34790 got disassociated, removing it.
17/12/22 17:29:46 WARN Master: Got status update for unknown executor app-20171222172641-0011/0
17/12/22 17:31:02 INFO Master: Registering app Creating BoWGral...
17/12/22 17:31:02 INFO Master: Registered app Creating BoWGral... with ID app-20171222173102-0012
17/12/22 17:31:02 INFO Master: Launching executor app-20171222173102-0012/0 on worker worker-20171222155014-192.168.1.4-43896
17/12/22 17:34:06 INFO Master: Received unregister request from application app-20171222173102-0012
17/12/22 17:34:06 INFO Master: Removing app app-20171222173102-0012
17/12/22 17:34:06 INFO Master: 192.168.1.2:43322 got disassociated, removing it.
17/12/22 17:34:06 INFO Master: 192.168.1.2:34771 got disassociated, removing it.
17/12/22 17:34:07 WARN Master: Got status update for unknown executor app-20171222173102-0012/0
17/12/22 17:34:43 INFO Master: Registering app Creating BoWGral...
17/12/22 17:34:43 INFO Master: Registered app Creating BoWGral... with ID app-20171222173443-0013
17/12/22 17:34:43 INFO Master: Launching executor app-20171222173443-0013/0 on worker worker-20171222155014-192.168.1.4-43896
17/12/22 17:37:45 INFO Master: Received unregister request from application app-20171222173443-0013
17/12/22 17:37:45 INFO Master: Removing app app-20171222173443-0013
17/12/22 17:37:45 INFO Master: 192.168.1.2:43376 got disassociated, removing it.
17/12/22 17:37:45 INFO Master: 192.168.1.2:33849 got disassociated, removing it.
17/12/22 17:37:46 WARN Master: Got status update for unknown executor app-20171222173443-0013/0
17/12/22 17:38:33 INFO Master: Registering app Creating Dictionary
17/12/22 17:38:33 INFO Master: Registered app Creating Dictionary with ID app-20171222173833-0014
17/12/22 17:38:33 INFO Master: Launching executor app-20171222173833-0014/0 on worker worker-20171222155014-192.168.1.4-43896
17/12/22 17:38:49 INFO Master: Received unregister request from application app-20171222173833-0014
17/12/22 17:38:49 INFO Master: Removing app app-20171222173833-0014
17/12/22 17:38:49 INFO Master: 192.168.1.2:43418 got disassociated, removing it.
17/12/22 17:38:49 INFO Master: 192.168.1.2:46700 got disassociated, removing it.
17/12/22 17:38:50 WARN Master: Got status update for unknown executor app-20171222173833-0014/0
17/12/22 17:39:24 INFO Master: Registering app Creating Dictionary
17/12/22 17:39:24 INFO Master: Registered app Creating Dictionary with ID app-20171222173924-0015
17/12/22 17:39:24 INFO Master: Launching executor app-20171222173924-0015/0 on worker worker-20171222155014-192.168.1.4-43896
17/12/22 17:39:41 INFO Master: Received unregister request from application app-20171222173924-0015
17/12/22 17:39:41 INFO Master: Removing app app-20171222173924-0015
17/12/22 17:39:41 INFO Master: 192.168.1.2:43450 got disassociated, removing it.
17/12/22 17:39:41 INFO Master: 192.168.1.2:40251 got disassociated, removing it.
17/12/22 17:39:42 WARN Master: Got status update for unknown executor app-20171222173924-0015/0
17/12/22 17:40:11 INFO Master: Registering app Creating Dictionary
17/12/22 17:40:11 INFO Master: Registered app Creating Dictionary with ID app-20171222174011-0016
17/12/22 17:40:11 INFO Master: Launching executor app-20171222174011-0016/0 on worker worker-20171222155014-192.168.1.4-43896
17/12/22 17:40:29 INFO Master: Received unregister request from application app-20171222174011-0016
17/12/22 17:40:29 INFO Master: Removing app app-20171222174011-0016
17/12/22 17:40:29 INFO Master: 192.168.1.2:43480 got disassociated, removing it.
17/12/22 17:40:29 INFO Master: 192.168.1.2:41914 got disassociated, removing it.
17/12/22 17:40:29 WARN Master: Got status update for unknown executor app-20171222174011-0016/0
17/12/22 17:40:58 INFO Master: Registering app Creating BoWIndividual...
17/12/22 17:40:58 INFO Master: Registered app Creating BoWIndividual... with ID app-20171222174058-0017
17/12/22 17:40:58 INFO Master: Launching executor app-20171222174058-0017/0 on worker worker-20171222155014-192.168.1.4-43896
17/12/22 17:46:23 INFO Master: Received unregister request from application app-20171222174058-0017
17/12/22 17:46:23 INFO Master: Removing app app-20171222174058-0017
17/12/22 17:46:23 INFO Master: 192.168.1.2:43508 got disassociated, removing it.
17/12/22 17:46:23 INFO Master: 192.168.1.2:35194 got disassociated, removing it.
17/12/22 17:46:23 WARN Master: Got status update for unknown executor app-20171222174058-0017/0
17/12/22 17:46:45 INFO Master: Registering app Creating BoWIndividual...
17/12/22 17:46:45 INFO Master: Registered app Creating BoWIndividual... with ID app-20171222174645-0018
17/12/22 17:46:45 INFO Master: Launching executor app-20171222174645-0018/0 on worker worker-20171222155014-192.168.1.4-43896
17/12/22 17:52:04 INFO Master: Received unregister request from application app-20171222174645-0018
17/12/22 17:52:04 INFO Master: Removing app app-20171222174645-0018
17/12/22 17:52:04 INFO Master: 192.168.1.2:43548 got disassociated, removing it.
17/12/22 17:52:04 INFO Master: 192.168.1.2:38667 got disassociated, removing it.
17/12/22 17:52:05 WARN Master: Got status update for unknown executor app-20171222174645-0018/0
17/12/22 17:52:23 INFO Master: Registering app Creating BoWIndividual...
17/12/22 17:52:23 INFO Master: Registered app Creating BoWIndividual... with ID app-20171222175223-0019
17/12/22 17:52:23 INFO Master: Launching executor app-20171222175223-0019/0 on worker worker-20171222155014-192.168.1.4-43896
17/12/22 17:57:42 INFO Master: Received unregister request from application app-20171222175223-0019
17/12/22 17:57:42 INFO Master: Removing app app-20171222175223-0019
17/12/22 17:57:42 INFO Master: 192.168.1.2:43584 got disassociated, removing it.
17/12/22 17:57:42 INFO Master: 192.168.1.2:43458 got disassociated, removing it.
17/12/22 17:57:42 WARN Master: Got status update for unknown executor app-20171222175223-0019/0
17/12/22 18:10:09 ERROR Master: RECEIVED SIGNAL TERM
