Spark Command: /usr/lib/jvm/java-8-oracle/bin/java -cp /usr/local/spark/conf/:/usr/local/spark/jars/* -Xmx1g org.apache.spark.deploy.master.Master --host Master --port 7077 --webui-port 8080
========================================
Using Spark's default log4j profile: org/apache/spark/log4j-defaults.properties
17/12/22 10:18:28 INFO Master: Started daemon with process name: 18726@Master
17/12/22 10:18:28 INFO SignalUtils: Registered signal handler for TERM
17/12/22 10:18:28 INFO SignalUtils: Registered signal handler for HUP
17/12/22 10:18:28 INFO SignalUtils: Registered signal handler for INT
17/12/22 10:18:28 WARN NativeCodeLoader: Unable to load native-hadoop library for your platform... using builtin-java classes where applicable
17/12/22 10:18:28 INFO SecurityManager: Changing view acls to: hduser
17/12/22 10:18:28 INFO SecurityManager: Changing modify acls to: hduser
17/12/22 10:18:28 INFO SecurityManager: Changing view acls groups to: 
17/12/22 10:18:28 INFO SecurityManager: Changing modify acls groups to: 
17/12/22 10:18:28 INFO SecurityManager: SecurityManager: authentication disabled; ui acls disabled; users  with view permissions: Set(hduser); groups with view permissions: Set(); users  with modify permissions: Set(hduser); groups with modify permissions: Set()
17/12/22 10:18:28 INFO Utils: Successfully started service 'sparkMaster' on port 7077.
17/12/22 10:18:29 INFO Master: Starting Spark master at spark://Master:7077
17/12/22 10:18:29 INFO Master: Running Spark version 2.1.1
17/12/22 10:18:29 INFO Utils: Successfully started service 'MasterUI' on port 8080.
17/12/22 10:18:29 INFO MasterWebUI: Bound MasterWebUI to 0.0.0.0, and started at http://192.168.1.2:8080
17/12/22 10:18:29 INFO Utils: Successfully started service on port 6066.
17/12/22 10:18:29 INFO StandaloneRestServer: Started REST server for submitting applications on port 6066
17/12/22 10:18:29 INFO Master: I have been elected leader! New state: ALIVE
17/12/22 10:18:39 INFO Master: Registering worker 192.168.1.4:33502 with 2 cores, 4.0 GB RAM
17/12/22 10:18:39 INFO Master: Registering worker 192.168.1.5:39159 with 2 cores, 4.0 GB RAM
17/12/22 10:21:25 INFO Master: Registering app Creating KeysDocs
17/12/22 10:21:25 INFO Master: Registered app Creating KeysDocs with ID app-20171222102125-0000
17/12/22 10:21:25 INFO Master: Launching executor app-20171222102125-0000/0 on worker worker-20171222101838-192.168.1.5-39159
17/12/22 10:21:25 INFO Master: Launching executor app-20171222102125-0000/1 on worker worker-20171222101838-192.168.1.4-33502
17/12/22 10:21:41 INFO Master: Received unregister request from application app-20171222102125-0000
17/12/22 10:21:41 INFO Master: Removing app app-20171222102125-0000
17/12/22 10:21:41 INFO Master: 192.168.1.2:44318 got disassociated, removing it.
17/12/22 10:21:41 INFO Master: 192.168.1.2:45038 got disassociated, removing it.
17/12/22 10:21:41 WARN Master: Got status update for unknown executor app-20171222102125-0000/1
17/12/22 10:21:42 WARN Master: Got status update for unknown executor app-20171222102125-0000/0
17/12/22 10:26:38 INFO Master: Registering app Creating KeysDocs
17/12/22 10:26:38 INFO Master: Registered app Creating KeysDocs with ID app-20171222102638-0001
17/12/22 10:26:38 INFO Master: Launching executor app-20171222102638-0001/0 on worker worker-20171222101838-192.168.1.5-39159
17/12/22 10:26:38 INFO Master: Launching executor app-20171222102638-0001/1 on worker worker-20171222101838-192.168.1.4-33502
17/12/22 10:26:51 INFO Master: Received unregister request from application app-20171222102638-0001
17/12/22 10:26:51 INFO Master: Removing app app-20171222102638-0001
17/12/22 10:26:51 INFO Master: 192.168.1.2:44346 got disassociated, removing it.
17/12/22 10:26:51 INFO Master: 192.168.1.2:43220 got disassociated, removing it.
17/12/22 10:26:51 WARN Master: Got status update for unknown executor app-20171222102638-0001/1
17/12/22 10:26:51 WARN Master: Got status update for unknown executor app-20171222102638-0001/0
17/12/22 10:27:01 INFO Master: Registering app Creating_Verifying OldKeysDocs
17/12/22 10:27:01 INFO Master: Registered app Creating_Verifying OldKeysDocs with ID app-20171222102701-0002
17/12/22 10:27:01 INFO Master: Launching executor app-20171222102701-0002/0 on worker worker-20171222101838-192.168.1.5-39159
17/12/22 10:27:01 INFO Master: Launching executor app-20171222102701-0002/1 on worker worker-20171222101838-192.168.1.4-33502
17/12/22 10:27:06 INFO Master: Received unregister request from application app-20171222102701-0002
17/12/22 10:27:06 INFO Master: Removing app app-20171222102701-0002
17/12/22 10:27:06 INFO Master: 192.168.1.2:44360 got disassociated, removing it.
17/12/22 10:27:06 INFO Master: 192.168.1.2:34623 got disassociated, removing it.
17/12/22 10:27:06 WARN Master: Got status update for unknown executor app-20171222102701-0002/0
17/12/22 10:27:06 WARN Master: Got status update for unknown executor app-20171222102701-0002/1
17/12/22 10:27:20 INFO Master: Registering app Creating Clean Core
17/12/22 10:27:20 INFO Master: Registered app Creating Clean Core with ID app-20171222102720-0003
17/12/22 10:27:20 INFO Master: Launching executor app-20171222102720-0003/0 on worker worker-20171222101838-192.168.1.5-39159
17/12/22 10:27:20 INFO Master: Launching executor app-20171222102720-0003/1 on worker worker-20171222101838-192.168.1.4-33502
17/12/22 10:47:36 INFO Master: Received unregister request from application app-20171222102720-0003
17/12/22 10:47:36 INFO Master: Removing app app-20171222102720-0003
17/12/22 10:47:36 INFO Master: 192.168.1.2:44368 got disassociated, removing it.
17/12/22 10:47:36 INFO Master: 192.168.1.2:45621 got disassociated, removing it.
17/12/22 10:47:36 WARN Master: Got status update for unknown executor app-20171222102720-0003/1
17/12/22 10:47:36 WARN Master: Got status update for unknown executor app-20171222102720-0003/0
17/12/22 10:47:37 INFO Master: Registering app Creating KeysDocs
17/12/22 10:47:37 INFO Master: Registered app Creating KeysDocs with ID app-20171222104737-0004
17/12/22 10:47:37 INFO Master: Launching executor app-20171222104737-0004/0 on worker worker-20171222101838-192.168.1.5-39159
17/12/22 10:47:37 INFO Master: Launching executor app-20171222104737-0004/1 on worker worker-20171222101838-192.168.1.4-33502
17/12/22 10:47:50 INFO Master: Received unregister request from application app-20171222104737-0004
17/12/22 10:47:50 INFO Master: Removing app app-20171222104737-0004
17/12/22 10:47:50 INFO Master: 192.168.1.2:46434 got disassociated, removing it.
17/12/22 10:47:50 INFO Master: 192.168.1.2:35353 got disassociated, removing it.
17/12/22 10:47:51 WARN Master: Got status update for unknown executor app-20171222104737-0004/0
17/12/22 10:47:51 WARN Master: Got status update for unknown executor app-20171222104737-0004/1
17/12/22 10:48:53 INFO Master: Registering app Creating Clean Core
17/12/22 10:48:53 INFO Master: Registered app Creating Clean Core with ID app-20171222104853-0005
17/12/22 10:48:53 INFO Master: Launching executor app-20171222104853-0005/0 on worker worker-20171222101838-192.168.1.5-39159
17/12/22 10:48:53 INFO Master: Launching executor app-20171222104853-0005/1 on worker worker-20171222101838-192.168.1.4-33502
17/12/22 11:09:09 INFO Master: Received unregister request from application app-20171222104853-0005
17/12/22 11:09:09 INFO Master: Removing app app-20171222104853-0005
17/12/22 11:09:09 INFO Master: 192.168.1.2:46446 got disassociated, removing it.
17/12/22 11:09:09 INFO Master: 192.168.1.2:35977 got disassociated, removing it.
17/12/22 11:09:10 WARN Master: Got status update for unknown executor app-20171222104853-0005/1
17/12/22 11:09:10 WARN Master: Got status update for unknown executor app-20171222104853-0005/0
17/12/22 11:09:11 INFO Master: Registering app Creating KeysDocs
17/12/22 11:09:11 INFO Master: Registered app Creating KeysDocs with ID app-20171222110911-0006
17/12/22 11:09:11 INFO Master: Launching executor app-20171222110911-0006/0 on worker worker-20171222101838-192.168.1.5-39159
17/12/22 11:09:11 INFO Master: Launching executor app-20171222110911-0006/1 on worker worker-20171222101838-192.168.1.4-33502
17/12/22 11:09:25 INFO Master: Received unregister request from application app-20171222110911-0006
17/12/22 11:09:25 INFO Master: Removing app app-20171222110911-0006
17/12/22 11:09:25 INFO Master: 192.168.1.2:48546 got disassociated, removing it.
17/12/22 11:09:25 INFO Master: 192.168.1.2:39555 got disassociated, removing it.
17/12/22 11:09:26 WARN Master: Got status update for unknown executor app-20171222110911-0006/0
17/12/22 11:09:26 WARN Master: Got status update for unknown executor app-20171222110911-0006/1
17/12/22 11:10:06 INFO Master: Registering app Creating Clean Core
17/12/22 11:10:06 INFO Master: Registered app Creating Clean Core with ID app-20171222111006-0007
17/12/22 11:10:06 INFO Master: Launching executor app-20171222111006-0007/0 on worker worker-20171222101838-192.168.1.5-39159
17/12/22 11:10:06 INFO Master: Launching executor app-20171222111006-0007/1 on worker worker-20171222101838-192.168.1.4-33502
17/12/22 11:30:44 INFO Master: Received unregister request from application app-20171222111006-0007
17/12/22 11:30:44 INFO Master: Removing app app-20171222111006-0007
17/12/22 11:30:44 INFO Master: 192.168.1.2:48570 got disassociated, removing it.
17/12/22 11:30:44 INFO Master: 192.168.1.2:45234 got disassociated, removing it.
17/12/22 11:30:44 WARN Master: Got status update for unknown executor app-20171222111006-0007/0
17/12/22 11:30:44 WARN Master: Got status update for unknown executor app-20171222111006-0007/1
17/12/22 11:30:45 INFO Master: Registering app Creating KeysDocs
17/12/22 11:30:45 INFO Master: Registered app Creating KeysDocs with ID app-20171222113045-0008
17/12/22 11:30:45 INFO Master: Launching executor app-20171222113045-0008/0 on worker worker-20171222101838-192.168.1.5-39159
17/12/22 11:30:45 INFO Master: Launching executor app-20171222113045-0008/1 on worker worker-20171222101838-192.168.1.4-33502
17/12/22 11:30:58 INFO Master: Received unregister request from application app-20171222113045-0008
17/12/22 11:30:58 INFO Master: Removing app app-20171222113045-0008
17/12/22 11:30:58 INFO Master: 192.168.1.2:50648 got disassociated, removing it.
17/12/22 11:30:58 INFO Master: 192.168.1.2:45821 got disassociated, removing it.
17/12/22 11:30:58 WARN Master: Got status update for unknown executor app-20171222113045-0008/0
17/12/22 11:30:58 WARN Master: Got status update for unknown executor app-20171222113045-0008/1
17/12/22 11:31:28 INFO Master: Registering app Creating Corpus
17/12/22 11:31:28 INFO Master: Registered app Creating Corpus with ID app-20171222113128-0009
17/12/22 11:31:28 INFO Master: Launching executor app-20171222113128-0009/0 on worker worker-20171222101838-192.168.1.5-39159
17/12/22 11:31:28 INFO Master: Launching executor app-20171222113128-0009/1 on worker worker-20171222101838-192.168.1.4-33502
17/12/22 11:33:13 INFO Master: Received unregister request from application app-20171222113128-0009
17/12/22 11:33:13 INFO Master: Removing app app-20171222113128-0009
17/12/22 11:33:13 INFO Master: 192.168.1.2:50672 got disassociated, removing it.
17/12/22 11:33:13 INFO Master: 192.168.1.2:40810 got disassociated, removing it.
17/12/22 11:33:14 WARN Master: Got status update for unknown executor app-20171222113128-0009/1
17/12/22 11:33:14 WARN Master: Got status update for unknown executor app-20171222113128-0009/0
17/12/22 11:33:57 INFO Master: Registering app Creating Corpus
17/12/22 11:33:57 INFO Master: Registered app Creating Corpus with ID app-20171222113357-0010
17/12/22 11:33:57 INFO Master: Launching executor app-20171222113357-0010/0 on worker worker-20171222101838-192.168.1.5-39159
17/12/22 11:33:57 INFO Master: Launching executor app-20171222113357-0010/1 on worker worker-20171222101838-192.168.1.4-33502
17/12/22 11:35:47 INFO Master: Received unregister request from application app-20171222113357-0010
17/12/22 11:35:47 INFO Master: Removing app app-20171222113357-0010
17/12/22 11:35:47 INFO Master: 192.168.1.2:50710 got disassociated, removing it.
17/12/22 11:35:47 INFO Master: 192.168.1.2:35790 got disassociated, removing it.
17/12/22 11:35:47 WARN Master: Got status update for unknown executor app-20171222113357-0010/1
17/12/22 11:35:47 WARN Master: Got status update for unknown executor app-20171222113357-0010/0
17/12/22 11:36:47 INFO Master: Registering app Creating Corpus
17/12/22 11:36:47 INFO Master: Registered app Creating Corpus with ID app-20171222113647-0011
17/12/22 11:36:47 INFO Master: Launching executor app-20171222113647-0011/0 on worker worker-20171222101838-192.168.1.5-39159
17/12/22 11:36:47 INFO Master: Launching executor app-20171222113647-0011/1 on worker worker-20171222101838-192.168.1.4-33502
17/12/22 11:38:31 INFO Master: Received unregister request from application app-20171222113647-0011
17/12/22 11:38:31 INFO Master: Removing app app-20171222113647-0011
17/12/22 11:38:31 INFO Master: 192.168.1.2:50750 got disassociated, removing it.
17/12/22 11:38:31 INFO Master: 192.168.1.2:33276 got disassociated, removing it.
17/12/22 11:38:31 WARN Master: Got status update for unknown executor app-20171222113647-0011/1
17/12/22 11:38:31 WARN Master: Got status update for unknown executor app-20171222113647-0011/0
17/12/22 11:40:21 INFO Master: Registering app Creating BoWGral...
17/12/22 11:40:21 INFO Master: Registered app Creating BoWGral... with ID app-20171222114021-0012
17/12/22 11:40:21 INFO Master: Launching executor app-20171222114021-0012/0 on worker worker-20171222101838-192.168.1.5-39159
17/12/22 11:40:21 INFO Master: Launching executor app-20171222114021-0012/1 on worker worker-20171222101838-192.168.1.4-33502
17/12/22 11:42:38 INFO Master: Received unregister request from application app-20171222114021-0012
17/12/22 11:42:38 INFO Master: Removing app app-20171222114021-0012
17/12/22 11:42:38 INFO Master: 192.168.1.2:50790 got disassociated, removing it.
17/12/22 11:42:38 INFO Master: 192.168.1.2:41036 got disassociated, removing it.
17/12/22 11:42:38 WARN Master: Got status update for unknown executor app-20171222114021-0012/1
17/12/22 11:42:38 WARN Master: Got status update for unknown executor app-20171222114021-0012/0
17/12/22 11:44:47 INFO Master: Registering app Creating BoWGral...
17/12/22 11:44:47 INFO Master: Registered app Creating BoWGral... with ID app-20171222114447-0013
17/12/22 11:44:47 INFO Master: Launching executor app-20171222114447-0013/0 on worker worker-20171222101838-192.168.1.5-39159
17/12/22 11:44:47 INFO Master: Launching executor app-20171222114447-0013/1 on worker worker-20171222101838-192.168.1.4-33502
17/12/22 11:47:05 INFO Master: Received unregister request from application app-20171222114447-0013
17/12/22 11:47:05 INFO Master: Removing app app-20171222114447-0013
17/12/22 11:47:05 INFO Master: 192.168.1.2:50836 got disassociated, removing it.
17/12/22 11:47:05 INFO Master: 192.168.1.2:43447 got disassociated, removing it.
17/12/22 11:47:05 WARN Master: Got status update for unknown executor app-20171222114447-0013/1
17/12/22 11:47:05 WARN Master: Got status update for unknown executor app-20171222114447-0013/0
17/12/22 11:47:45 INFO Master: Registering app Creating BoWGral...
17/12/22 11:47:45 INFO Master: Registered app Creating BoWGral... with ID app-20171222114745-0014
17/12/22 11:47:45 INFO Master: Launching executor app-20171222114745-0014/0 on worker worker-20171222101838-192.168.1.5-39159
17/12/22 11:47:45 INFO Master: Launching executor app-20171222114745-0014/1 on worker worker-20171222101838-192.168.1.4-33502
17/12/22 11:50:04 INFO Master: Received unregister request from application app-20171222114745-0014
17/12/22 11:50:04 INFO Master: Removing app app-20171222114745-0014
17/12/22 11:50:04 INFO Master: 192.168.1.2:50874 got disassociated, removing it.
17/12/22 11:50:04 INFO Master: 192.168.1.2:41345 got disassociated, removing it.
17/12/22 11:50:04 WARN Master: Got status update for unknown executor app-20171222114745-0014/1
17/12/22 11:50:04 WARN Master: Got status update for unknown executor app-20171222114745-0014/0
17/12/22 11:51:36 INFO Master: Registering app Creating Dictionary
17/12/22 11:51:36 INFO Master: Registered app Creating Dictionary with ID app-20171222115136-0015
17/12/22 11:51:36 INFO Master: Launching executor app-20171222115136-0015/0 on worker worker-20171222101838-192.168.1.5-39159
17/12/22 11:51:36 INFO Master: Launching executor app-20171222115136-0015/1 on worker worker-20171222101838-192.168.1.4-33502
17/12/22 11:51:53 INFO Master: Received unregister request from application app-20171222115136-0015
17/12/22 11:51:53 INFO Master: Removing app app-20171222115136-0015
17/12/22 11:51:53 INFO Master: 192.168.1.2:50914 got disassociated, removing it.
17/12/22 11:51:53 INFO Master: 192.168.1.2:35074 got disassociated, removing it.
17/12/22 11:51:53 WARN Master: Got status update for unknown executor app-20171222115136-0015/0
17/12/22 11:51:53 WARN Master: Got status update for unknown executor app-20171222115136-0015/1
17/12/22 11:52:45 INFO Master: Registering app Creating Dictionary
17/12/22 11:52:45 INFO Master: Registered app Creating Dictionary with ID app-20171222115245-0016
17/12/22 11:52:45 INFO Master: Launching executor app-20171222115245-0016/0 on worker worker-20171222101838-192.168.1.5-39159
17/12/22 11:52:45 INFO Master: Launching executor app-20171222115245-0016/1 on worker worker-20171222101838-192.168.1.4-33502
17/12/22 11:53:01 INFO Master: Received unregister request from application app-20171222115245-0016
17/12/22 11:53:01 INFO Master: Removing app app-20171222115245-0016
17/12/22 11:53:01 INFO Master: 192.168.1.2:50944 got disassociated, removing it.
17/12/22 11:53:01 INFO Master: 192.168.1.2:43429 got disassociated, removing it.
17/12/22 11:53:02 WARN Master: Got status update for unknown executor app-20171222115245-0016/1
17/12/22 11:53:02 WARN Master: Got status update for unknown executor app-20171222115245-0016/0
17/12/22 11:53:28 INFO Master: Registering app Creating Dictionary
17/12/22 11:53:28 INFO Master: Registered app Creating Dictionary with ID app-20171222115328-0017
17/12/22 11:53:28 INFO Master: Launching executor app-20171222115328-0017/0 on worker worker-20171222101838-192.168.1.5-39159
17/12/22 11:53:28 INFO Master: Launching executor app-20171222115328-0017/1 on worker worker-20171222101838-192.168.1.4-33502
17/12/22 11:53:45 INFO Master: Received unregister request from application app-20171222115328-0017
17/12/22 11:53:45 INFO Master: Removing app app-20171222115328-0017
17/12/22 11:53:45 INFO Master: 192.168.1.2:50974 got disassociated, removing it.
17/12/22 11:53:45 INFO Master: 192.168.1.2:45895 got disassociated, removing it.
17/12/22 11:53:45 WARN Master: Got status update for unknown executor app-20171222115328-0017/1
17/12/22 11:53:45 WARN Master: Got status update for unknown executor app-20171222115328-0017/0
17/12/22 11:54:16 INFO Master: Registering app Creating BoWIndividual...
17/12/22 11:54:16 INFO Master: Registered app Creating BoWIndividual... with ID app-20171222115416-0018
17/12/22 11:54:16 INFO Master: Launching executor app-20171222115416-0018/0 on worker worker-20171222101838-192.168.1.5-39159
17/12/22 11:54:16 INFO Master: Launching executor app-20171222115416-0018/1 on worker worker-20171222101838-192.168.1.4-33502
17/12/22 11:58:45 INFO Master: Received unregister request from application app-20171222115416-0018
17/12/22 11:58:45 INFO Master: Removing app app-20171222115416-0018
17/12/22 11:58:45 INFO Master: 192.168.1.2:51004 got disassociated, removing it.
17/12/22 11:58:45 INFO Master: 192.168.1.2:45668 got disassociated, removing it.
17/12/22 11:58:45 WARN Master: Got status update for unknown executor app-20171222115416-0018/0
17/12/22 11:58:45 WARN Master: Got status update for unknown executor app-20171222115416-0018/1
17/12/22 12:02:47 INFO Master: Registering app Creating BoWIndividual...
17/12/22 12:02:47 INFO Master: Registered app Creating BoWIndividual... with ID app-20171222120247-0019
17/12/22 12:02:47 INFO Master: Launching executor app-20171222120247-0019/0 on worker worker-20171222101838-192.168.1.5-39159
17/12/22 12:02:47 INFO Master: Launching executor app-20171222120247-0019/1 on worker worker-20171222101838-192.168.1.4-33502
17/12/22 12:07:18 INFO Master: Received unregister request from application app-20171222120247-0019
17/12/22 12:07:18 INFO Master: Removing app app-20171222120247-0019
17/12/22 12:07:18 INFO Master: 192.168.1.2:51048 got disassociated, removing it.
17/12/22 12:07:18 INFO Master: 192.168.1.2:34442 got disassociated, removing it.
17/12/22 12:07:19 WARN Master: Got status update for unknown executor app-20171222120247-0019/0
17/12/22 12:07:19 WARN Master: Got status update for unknown executor app-20171222120247-0019/1
17/12/22 12:09:24 INFO Master: Registering app Creating BoWIndividual...
17/12/22 12:09:24 INFO Master: Registered app Creating BoWIndividual... with ID app-20171222120924-0020
17/12/22 12:09:24 INFO Master: Launching executor app-20171222120924-0020/0 on worker worker-20171222101838-192.168.1.5-39159
17/12/22 12:09:24 INFO Master: Launching executor app-20171222120924-0020/1 on worker worker-20171222101838-192.168.1.4-33502
17/12/22 12:13:52 INFO Master: Received unregister request from application app-20171222120924-0020
17/12/22 12:13:52 INFO Master: Removing app app-20171222120924-0020
17/12/22 12:13:52 INFO Master: 192.168.1.2:51088 got disassociated, removing it.
17/12/22 12:13:52 INFO Master: 192.168.1.2:39370 got disassociated, removing it.
17/12/22 12:13:52 WARN Master: Got status update for unknown executor app-20171222120924-0020/0
17/12/22 12:13:52 WARN Master: Got status update for unknown executor app-20171222120924-0020/1
17/12/22 12:14:32 INFO Master: Registering app Creating histograms
17/12/22 12:14:32 INFO Master: Registered app Creating histograms with ID app-20171222121432-0021
17/12/22 12:14:32 INFO Master: Launching executor app-20171222121432-0021/0 on worker worker-20171222101838-192.168.1.5-39159
17/12/22 12:14:32 INFO Master: Launching executor app-20171222121432-0021/1 on worker worker-20171222101838-192.168.1.4-33502
17/12/22 12:25:01 INFO Master: Received unregister request from application app-20171222121432-0021
17/12/22 12:25:01 INFO Master: Removing app app-20171222121432-0021
17/12/22 12:25:02 INFO Master: 192.168.1.2:51126 got disassociated, removing it.
17/12/22 12:25:02 INFO Master: 192.168.1.2:35916 got disassociated, removing it.
17/12/22 12:25:02 WARN Master: Got status update for unknown executor app-20171222121432-0021/1
17/12/22 12:25:02 WARN Master: Got status update for unknown executor app-20171222121432-0021/0
17/12/22 13:17:25 INFO Master: Registering app Creating histograms
17/12/22 13:17:25 INFO Master: Registered app Creating histograms with ID app-20171222131725-0022
17/12/22 13:17:25 INFO Master: Launching executor app-20171222131725-0022/0 on worker worker-20171222101838-192.168.1.5-39159
17/12/22 13:17:25 INFO Master: Launching executor app-20171222131725-0022/1 on worker worker-20171222101838-192.168.1.4-33502
17/12/22 13:27:49 INFO Master: Received unregister request from application app-20171222131725-0022
17/12/22 13:27:49 INFO Master: Removing app app-20171222131725-0022
17/12/22 13:27:49 INFO Master: 192.168.1.2:53288 got disassociated, removing it.
17/12/22 13:27:49 INFO Master: 192.168.1.2:37209 got disassociated, removing it.
17/12/22 13:27:49 WARN Master: Got status update for unknown executor app-20171222131725-0022/1
17/12/22 13:27:49 WARN Master: Got status update for unknown executor app-20171222131725-0022/0
17/12/22 13:28:26 INFO Master: Registering app Creating histograms
17/12/22 13:28:26 INFO Master: Registered app Creating histograms with ID app-20171222132826-0023
17/12/22 13:28:26 INFO Master: Launching executor app-20171222132826-0023/0 on worker worker-20171222101838-192.168.1.5-39159
17/12/22 13:28:26 INFO Master: Launching executor app-20171222132826-0023/1 on worker worker-20171222101838-192.168.1.4-33502
17/12/22 13:38:43 INFO Master: Received unregister request from application app-20171222132826-0023
17/12/22 13:38:43 INFO Master: Removing app app-20171222132826-0023
17/12/22 13:38:43 INFO Master: 192.168.1.2:55348 got disassociated, removing it.
17/12/22 13:38:43 INFO Master: 192.168.1.2:35132 got disassociated, removing it.
17/12/22 13:38:44 WARN Master: Got status update for unknown executor app-20171222132826-0023/0
17/12/22 13:38:44 WARN Master: Got status update for unknown executor app-20171222132826-0023/1
17/12/22 13:40:03 INFO Master: Registering app Creating Key-Value (Id-Doc)
17/12/22 13:40:03 INFO Master: Registered app Creating Key-Value (Id-Doc) with ID app-20171222134003-0024
17/12/22 13:40:03 INFO Master: Launching executor app-20171222134003-0024/0 on worker worker-20171222101838-192.168.1.5-39159
17/12/22 13:40:03 INFO Master: Launching executor app-20171222134003-0024/1 on worker worker-20171222101838-192.168.1.4-33502
17/12/22 13:40:11 INFO Master: Received unregister request from application app-20171222134003-0024
17/12/22 13:40:11 INFO Master: Removing app app-20171222134003-0024
17/12/22 13:40:11 INFO Master: 192.168.1.2:57408 got disassociated, removing it.
17/12/22 13:40:11 INFO Master: 192.168.1.2:41578 got disassociated, removing it.
17/12/22 13:40:11 WARN Master: Got status update for unknown executor app-20171222134003-0024/1
17/12/22 13:40:11 WARN Master: Got status update for unknown executor app-20171222134003-0024/0
17/12/22 13:40:31 INFO Master: Registering app Creating Key-Value (Id-Doc)
17/12/22 13:40:31 INFO Master: Registered app Creating Key-Value (Id-Doc) with ID app-20171222134031-0025
17/12/22 13:40:31 INFO Master: Launching executor app-20171222134031-0025/0 on worker worker-20171222101838-192.168.1.5-39159
17/12/22 13:40:31 INFO Master: Launching executor app-20171222134031-0025/1 on worker worker-20171222101838-192.168.1.4-33502
17/12/22 13:40:37 INFO Master: Received unregister request from application app-20171222134031-0025
17/12/22 13:40:37 INFO Master: Removing app app-20171222134031-0025
17/12/22 13:40:37 INFO Master: 192.168.1.2:57424 got disassociated, removing it.
17/12/22 13:40:37 INFO Master: 192.168.1.2:36614 got disassociated, removing it.
17/12/22 13:40:37 WARN Master: Got status update for unknown executor app-20171222134031-0025/0
17/12/22 13:40:37 WARN Master: Got status update for unknown executor app-20171222134031-0025/1
17/12/22 13:41:09 INFO Master: Registering app Creating Key-Value (Id-Doc)
17/12/22 13:41:09 INFO Master: Registered app Creating Key-Value (Id-Doc) with ID app-20171222134109-0026
17/12/22 13:41:09 INFO Master: Launching executor app-20171222134109-0026/0 on worker worker-20171222101838-192.168.1.5-39159
17/12/22 13:41:09 INFO Master: Launching executor app-20171222134109-0026/1 on worker worker-20171222101838-192.168.1.4-33502
17/12/22 13:41:15 INFO Master: Received unregister request from application app-20171222134109-0026
17/12/22 13:41:15 INFO Master: Removing app app-20171222134109-0026
17/12/22 13:41:15 INFO Master: 192.168.1.2:57452 got disassociated, removing it.
17/12/22 13:41:15 INFO Master: 192.168.1.2:44376 got disassociated, removing it.
17/12/22 13:41:15 WARN Master: Got status update for unknown executor app-20171222134109-0026/1
17/12/22 13:41:15 WARN Master: Got status update for unknown executor app-20171222134109-0026/0
17/12/22 13:41:46 INFO Master: Registering app Creating Key-Value (Id-Doc)
17/12/22 13:41:46 INFO Master: Registered app Creating Key-Value (Id-Doc) with ID app-20171222134146-0027
17/12/22 13:41:46 INFO Master: Launching executor app-20171222134146-0027/0 on worker worker-20171222101838-192.168.1.5-39159
17/12/22 13:41:46 INFO Master: Launching executor app-20171222134146-0027/1 on worker worker-20171222101838-192.168.1.4-33502
17/12/22 13:41:51 INFO Master: Received unregister request from application app-20171222134146-0027
17/12/22 13:41:51 INFO Master: Removing app app-20171222134146-0027
17/12/22 13:41:51 INFO Master: 192.168.1.2:57480 got disassociated, removing it.
17/12/22 13:41:51 INFO Master: 192.168.1.2:39838 got disassociated, removing it.
17/12/22 13:41:52 WARN Master: Got status update for unknown executor app-20171222134146-0027/0
17/12/22 13:41:52 WARN Master: Got status update for unknown executor app-20171222134146-0027/1
17/12/22 13:42:13 INFO Master: Registering app Creating Key-Value (Id-Word)
17/12/22 13:42:13 INFO Master: Registered app Creating Key-Value (Id-Word) with ID app-20171222134213-0028
17/12/22 13:42:13 INFO Master: Launching executor app-20171222134213-0028/0 on worker worker-20171222101838-192.168.1.5-39159
17/12/22 13:42:13 INFO Master: Launching executor app-20171222134213-0028/1 on worker worker-20171222101838-192.168.1.4-33502
17/12/22 13:42:17 INFO Master: Received unregister request from application app-20171222134213-0028
17/12/22 13:42:17 INFO Master: Removing app app-20171222134213-0028
17/12/22 13:42:17 INFO Master: 192.168.1.2:57496 got disassociated, removing it.
17/12/22 13:42:17 INFO Master: 192.168.1.2:43726 got disassociated, removing it.
17/12/22 13:42:18 WARN Master: Got status update for unknown executor app-20171222134213-0028/1
17/12/22 13:42:18 WARN Master: Got status update for unknown executor app-20171222134213-0028/0
17/12/22 13:42:41 INFO Master: Registering app Creating Key-Value (Id-Word)
17/12/22 13:42:41 INFO Master: Registered app Creating Key-Value (Id-Word) with ID app-20171222134241-0029
17/12/22 13:42:41 INFO Master: Launching executor app-20171222134241-0029/0 on worker worker-20171222101838-192.168.1.5-39159
17/12/22 13:42:41 INFO Master: Launching executor app-20171222134241-0029/1 on worker worker-20171222101838-192.168.1.4-33502
17/12/22 13:42:46 INFO Master: Received unregister request from application app-20171222134241-0029
17/12/22 13:42:46 INFO Master: Removing app app-20171222134241-0029
17/12/22 13:42:46 INFO Master: 192.168.1.2:57506 got disassociated, removing it.
17/12/22 13:42:46 INFO Master: 192.168.1.2:33606 got disassociated, removing it.
17/12/22 13:42:46 WARN Master: Got status update for unknown executor app-20171222134241-0029/1
17/12/22 13:42:46 WARN Master: Got status update for unknown executor app-20171222134241-0029/0
17/12/22 13:42:57 INFO Master: Registering app Creating Key-Value (Id-Word)
17/12/22 13:42:57 INFO Master: Registered app Creating Key-Value (Id-Word) with ID app-20171222134257-0030
17/12/22 13:42:57 INFO Master: Launching executor app-20171222134257-0030/0 on worker worker-20171222101838-192.168.1.5-39159
17/12/22 13:42:57 INFO Master: Launching executor app-20171222134257-0030/1 on worker worker-20171222101838-192.168.1.4-33502
17/12/22 13:43:03 INFO Master: Received unregister request from application app-20171222134257-0030
17/12/22 13:43:03 INFO Master: Removing app app-20171222134257-0030
17/12/22 13:43:03 INFO Master: 192.168.1.2:57516 got disassociated, removing it.
17/12/22 13:43:03 INFO Master: 192.168.1.2:42958 got disassociated, removing it.
17/12/22 13:43:03 WARN Master: Got status update for unknown executor app-20171222134257-0030/1
17/12/22 13:43:03 WARN Master: Got status update for unknown executor app-20171222134257-0030/0
17/12/22 13:44:00 INFO Master: Registering app Creating Sparse Matrix (Termino/Documento)
17/12/22 13:44:00 INFO Master: Registered app Creating Sparse Matrix (Termino/Documento) with ID app-20171222134400-0031
17/12/22 13:44:00 INFO Master: Launching executor app-20171222134400-0031/0 on worker worker-20171222101838-192.168.1.5-39159
17/12/22 13:44:00 INFO Master: Launching executor app-20171222134400-0031/1 on worker worker-20171222101838-192.168.1.4-33502
17/12/22 13:54:20 INFO Master: Received unregister request from application app-20171222134400-0031
17/12/22 13:54:20 INFO Master: Removing app app-20171222134400-0031
17/12/22 13:54:20 INFO Master: 192.168.1.2:57530 got disassociated, removing it.
17/12/22 13:54:20 INFO Master: 192.168.1.2:44580 got disassociated, removing it.
17/12/22 13:54:20 WARN Master: Got status update for unknown executor app-20171222134400-0031/0
17/12/22 13:54:20 WARN Master: Got status update for unknown executor app-20171222134400-0031/1
17/12/22 13:56:29 INFO Master: Registering app Creating Sparse Matrix (Termino/Documento)
17/12/22 13:56:29 INFO Master: Registered app Creating Sparse Matrix (Termino/Documento) with ID app-20171222135629-0032
17/12/22 13:56:29 INFO Master: Launching executor app-20171222135629-0032/0 on worker worker-20171222101838-192.168.1.5-39159
17/12/22 13:56:29 INFO Master: Launching executor app-20171222135629-0032/1 on worker worker-20171222101838-192.168.1.4-33502
17/12/22 14:06:48 INFO Master: Received unregister request from application app-20171222135629-0032
17/12/22 14:06:48 INFO Master: Removing app app-20171222135629-0032
17/12/22 14:06:48 INFO Master: 192.168.1.2:59594 got disassociated, removing it.
17/12/22 14:06:48 INFO Master: 192.168.1.2:33942 got disassociated, removing it.
17/12/22 14:06:48 WARN Master: Got status update for unknown executor app-20171222135629-0032/1
17/12/22 14:06:48 WARN Master: Got status update for unknown executor app-20171222135629-0032/0
17/12/22 14:07:43 INFO Master: Registering app Creating Sparse Matrix (Termino/Documento)
17/12/22 14:07:43 INFO Master: Registered app Creating Sparse Matrix (Termino/Documento) with ID app-20171222140743-0033
17/12/22 14:07:43 INFO Master: Launching executor app-20171222140743-0033/0 on worker worker-20171222101838-192.168.1.5-39159
17/12/22 14:07:43 INFO Master: Launching executor app-20171222140743-0033/1 on worker worker-20171222101838-192.168.1.4-33502
17/12/22 14:17:58 INFO Master: Removing executor app-20171222140743-0033/1 because it is EXITED
17/12/22 14:17:58 INFO Master: Launching executor app-20171222140743-0033/2 on worker worker-20171222101838-192.168.1.4-33502
17/12/22 14:18:04 INFO Master: Received unregister request from application app-20171222140743-0033
17/12/22 14:18:04 INFO Master: Removing app app-20171222140743-0033
17/12/22 14:18:04 INFO Master: 192.168.1.2:33420 got disassociated, removing it.
17/12/22 14:18:04 INFO Master: 192.168.1.2:35921 got disassociated, removing it.
17/12/22 14:18:05 WARN Master: Got status update for unknown executor app-20171222140743-0033/2
17/12/22 14:18:05 WARN Master: Got status update for unknown executor app-20171222140743-0033/0
17/12/22 15:40:12 WARN Master: Got status update for unknown executor app-20171222140743-0033/1
17/12/22 15:40:12 ERROR Master: RECEIVED SIGNAL TERM
